LALOG/pires/wrkits-projeto/simulation/qsim/halfadder.msim.vcd
$comment
	File created using the following command:
		vcd file halfadder.msim.vcd -direction
$end
$date
	Tue Jun 29 14:11:35 2021
$end
$version
	ModelSim Version 2020.1
$end
$timescale
	1ps
$end

$scope module halfadder_vhd_vec_tst $end
$var wire 1 ! A $end
$var wire 1 " B $end
$var wire 1 # c $end
$var wire 1 $ s $end

$scope module i1 $end
$var wire 1 % gnd $end
$var wire 1 & vcc $end
$var wire 1 ' unknown $end
$var wire 1 ( devoe $end
$var wire 1 ) devclrn $end
$var wire 1 * devpor $end
$var wire 1 + ww_devoe $end
$var wire 1 , ww_devclrn $end
$var wire 1 - ww_devpor $end
$var wire 1 . ww_A $end
$var wire 1 / ww_B $end
$var wire 1 0 ww_s $end
$var wire 1 1 ww_c $end
$var wire 1 2 \~QUARTUS_CREATED_ADC1~_CHSEL_bus\ [4] $end
$var wire 1 3 \~QUARTUS_CREATED_ADC1~_CHSEL_bus\ [3] $end
$var wire 1 4 \~QUARTUS_CREATED_ADC1~_CHSEL_bus\ [2] $end
$var wire 1 5 \~QUARTUS_CREATED_ADC1~_CHSEL_bus\ [1] $end
$var wire 1 6 \~QUARTUS_CREATED_ADC1~_CHSEL_bus\ [0] $end
$var wire 1 7 \~QUARTUS_CREATED_ADC2~_CHSEL_bus\ [4] $end
$var wire 1 8 \~QUARTUS_CREATED_ADC2~_CHSEL_bus\ [3] $end
$var wire 1 9 \~QUARTUS_CREATED_ADC2~_CHSEL_bus\ [2] $end
$var wire 1 : \~QUARTUS_CREATED_ADC2~_CHSEL_bus\ [1] $end
$var wire 1 ; \~QUARTUS_CREATED_ADC2~_CHSEL_bus\ [0] $end
$var wire 1 < \~QUARTUS_CREATED_GND~I_combout\ $end
$var wire 1 = \~QUARTUS_CREATED_UNVM~~busy\ $end
$var wire 1 > \~QUARTUS_CREATED_ADC1~~eoc\ $end
$var wire 1 ? \~QUARTUS_CREATED_ADC2~~eoc\ $end
$var wire 1 @ \s~output_o\ $end
$var wire 1 A \c~output_o\ $end
$var wire 1 B \A~input_o\ $end
$var wire 1 C \B~input_o\ $end
$var wire 1 D \s~0_combout\ $end
$var wire 1 E \c~0_combout\ $end
$upscope $end
$upscope $end
$enddefinitions $end
#0
$dumpvars
0!
0"
0#
0$
0%
1&
x'
1(
1)
1*
1+
1,
1-
0.
0/
00
01
0<
z=
z>
z?
0@
0A
0B
0C
0D
0E
02
03
04
05
06
07
08
09
0:
0;
$end
#5000
1!
1.
1B
1D
1@
10
1$
#10000
0!
1"
0.
1/
1C
0B
#15000
1!
1.
1B
0D
1E
1A
0@
11
00
1#
0$
#20000
0!
0"
0.
0/
0C
0B
0E
0A
01
0#
#25000
1!
1.
1B
1D
1@
10
1$
#30000
0!
1"
0.
1/
1C
0B
#35000
1!
1.
1B
0D
1E
1A
0@
11
00
1#
0$
#40000
0!
0"
0.
0/
0C
0B
0E
0A
01
0#
#45000
1!
1.
1B
1D
1@
10
1$
#50000
0!
1"
0.
1/
1C
0B
#55000
1!
1.
1B
0D
1E
1A
0@
11
00
1#
0$
#60000
0!
0"
0.
0/
0C
0B
0E
0A
01
0#
#65000
1!
1.
1B
1D
1@
10
1$
#70000
0!
1"
0.
1/
1C
0B
#75000
1!
1.
1B
0D
1E
1A
0@
11
00
1#
0$
#80000
0!
0"
0.
0/
0C
0B
0E
0A
01
0#
#85000
1!
1.
1B
1D
1@
10
1$
#90000
0!
1"
0.
1/
1C
0B
#95000
1!
1.
1B
0D
1E
1A
0@
11
00
1#
0$
#100000
0!
0"
0.
0/
0C
0B
0E
0A
01
0#
#105000
1!
1.
1B
1D
1@
10
1$
#110000
0!
1"
0.
1/
1C
0B
#115000
1!
1.
1B
0D
1E
1A
0@
11
00
1#
0$
#120000
0!
0"
0.
0/
0C
0B
0E
0A
01
0#
#125000
1!
1.
1B
1D
1@
10
1$
#130000
0!
1"
0.
1/
1C
0B
#135000
1!
1.
1B
0D
1E
1A
0@
11
00
1#
0$
#140000
0!
0"
0.
0/
0C
0B
0E
0A
01
0#
#145000
1!
1.
1B
1D
1@
10
1$
#150000
0!
1"
0.
1/
1C
0B
#155000
1!
1.
1B
0D
1E
1A
0@
11
00
1#
0$
#160000
0!
0"
0.
0/
0C
0B
0E
0A
01
0#
#165000
1!
1.
1B
1D
1@
10
1$
#170000
0!
1"
0.
1/
1C
0B
#175000
1!
1.
1B
0D
1E
1A
0@
11
00
1#
0$
#180000
0!
0"
0.
0/
0C
0B
0E
0A
01
0#
#185000
1!
1.
1B
1D
1@
10
1$
#190000
0!
1"
0.
1/
1C
0B
#195000
1!
1.
1B
0D
1E
1A
0@
11
00
1#
0$
#200000
0!
0"
0.
0/
0C
0B
0E
0A
01
0#
#205000
1!
1.
1B
1D
1@
10
1$
#210000
0!
1"
0.
1/
1C
0B
#215000
1!
1.
1B
0D
1E
1A
0@
11
00
1#
0$
#220000
0!
0"
0.
0/
0C
0B
0E
0A
01
0#
#225000
1!
1.
1B
1D
1@
10
1$
#230000
0!
1"
0.
1/
1C
0B
#235000
1!
1.
1B
0D
1E
1A
0@
11
00
1#
0$
#240000
0!
0"
0.
0/
0C
0B
0E
0A
01
0#
#245000
1!
1.
1B
1D
1@
10
1$
#250000
0!
1"
0.
1/
1C
0B
#255000
1!
1.
1B
0D
1E
1A
0@
11
00
1#
0$
#260000
0!
0"
0.
0/
0C
0B
0E
0A
01
0#
#265000
1!
1.
1B
1D
1@
10
1$
#270000
0!
1"
0.
1/
1C
0B
#275000
1!
1.
1B
0D
1E
1A
0@
11
00
1#
0$
#280000
0!
0"
0.
0/
0C
0B
0E
0A
01
0#
#285000
1!
1.
1B
1D
1@
10
1$
#290000
0!
1"
0.
1/
1C
0B
#295000
1!
1.
1B
0D
1E
1A
0@
11
00
1#
0$
#300000
0!
0"
0.
0/
0C
0B
0E
0A
01
0#
#305000
1!
1.
1B
1D
1@
10
1$
#310000
0!
1"
0.
1/
1C
0B
#315000
1!
1.
1B
0D
1E
1A
0@
11
00
1#
0$
#320000
0!
0"
0.
0/
0C
0B
0E
0A
01
0#
#325000
1!
1.
1B
1D
1@
10
1$
#330000
0!
1"
0.
1/
1C
0B
#335000
1!
1.
1B
0D
1E
1A
0@
11
00
1#
0$
#340000
0!
0"
0.
0/
0C
0B
0E
0A
01
0#
#345000
1!
1.
1B
1D
1@
10
1$
#350000
0!
1"
0.
1/
1C
0B
#355000
1!
1.
1B
0D
1E
1A
0@
11
00
1#
0$
#360000
0!
0"
0.
0/
0C
0B
0E
0A
01
0#
#365000
1!
1.
1B
1D
1@
10
1$
#370000
0!
1"
0.
1/
1C
0B
#375000
1!
1.
1B
0D
1E
1A
0@
11
00
1#
0$
#380000
0!
0"
0.
0/
0C
0B
0E
0A
01
0#
#385000
1!
1.
1B
1D
1@
10
1$
#390000
0!
1"
0.
1/
1C
0B
#395000
1!
1.
1B
0D
1E
1A
0@
11
00
1#
0$
#400000
0!
0"
0.
0/
0C
0B
0E
0A
01
0#
#405000
1!
1.
1B
1D
1@
10
1$
#410000
0!
1"
0.
1/
1C
0B
#415000
1!
1.
1B
0D
1E
1A
0@
11
00
1#
0$
#420000
0!
0"
0.
0/
0C
0B
0E
0A
01
0#
#425000
1!
1.
1B
1D
1@
10
1$
#430000
0!
1"
0.
1/
1C
0B
#435000
1!
1.
1B
0D
1E
1A
0@
11
00
1#
0$
#440000
0!
0"
0.
0/
0C
0B
0E
0A
01
0#
#445000
1!
1.
1B
1D
1@
10
1$
#450000
0!
1"
0.
1/
1C
0B
#455000
1!
1.
1B
0D
1E
1A
0@
11
00
1#
0$
#460000
0!
0"
0.
0/
0C
0B
0E
0A
01
0#
#465000
1!
1.
1B
1D
1@
10
1$
#470000
0!
1"
0.
1/
1C
0B
#475000
1!
1.
1B
0D
1E
1A
0@
11
00
1#
0$
#480000
0!
0"
0.
0/
0C
0B
0E
0A
01
0#
#485000
1!
1.
1B
1D
1@
10
1$
#490000
0!
1"
0.
1/
1C
0B
#495000
1!
1.
1B
0D
1E
1A
0@
11
00
1#
0$
#500000
0!
0"
0.
0/
0C
0B
0E
0A
01
0#
#505000
1!
1.
1B
1D
1@
10
1$
#510000
0!
1"
0.
1/
1C
0B
#515000
1!
1.
1B
0D
1E
1A
0@
11
00
1#
0$
#520000
0!
0"
0.
0/
0C
0B
0E
0A
01
0#
#525000
1!
1.
1B
1D
1@
10
1$
#530000
0!
1"
0.
1/
1C
0B
#535000
1!
1.
1B
0D
1E
1A
0@
11
00
1#
0$
#540000
0!
0"
0.
0/
0C
0B
0E
0A
01
0#
#545000
1!
1.
1B
1D
1@
10
1$
#550000
0!
1"
0.
1/
1C
0B
#555000
1!
1.
1B
0D
1E
1A
0@
11
00
1#
0$
#560000
0!
0"
0.
0/
0C
0B
0E
0A
01
0#
#565000
1!
1.
1B
1D
1@
10
1$
#570000
0!
1"
0.
1/
1C
0B
#575000
1!
1.
1B
0D
1E
1A
0@
11
00
1#
0$
#580000
0!
0"
0.
0/
0C
0B
0E
0A
01
0#
#585000
1!
1.
1B
1D
1@
10
1$
#590000
0!
1"
0.
1/
1C
0B
#595000
1!
1.
1B
0D
1E
1A
0@
11
00
1#
0$
#600000
0!
0"
0.
0/
0C
0B
0E
0A
01
0#
#605000
1!
1.
1B
1D
1@
10
1$
#610000
0!
1"
0.
1/
1C
0B
#615000
1!
1.
1B
0D
1E
1A
0@
11
00
1#
0$
#620000
0!
0"
0.
0/
0C
0B
0E
0A
01
0#
#625000
1!
1.
1B
1D
1@
10
1$
#630000
0!
1"
0.
1/
1C
0B
#635000
1!
1.
1B
0D
1E
1A
0@
11
00
1#
0$
#640000
0!
0"
0.
0/
0C
0B
0E
0A
01
0#
#645000
1!
1.
1B
1D
1@
10
1$
#650000
0!
1"
0.
1/
1C
0B
#655000
1!
1.
1B
0D
1E
1A
0@
11
00
1#
0$
#660000
0!
0"
0.
0/
0C
0B
0E
0A
01
0#
#665000
1!
1.
1B
1D
1@
10
1$
#670000
0!
1"
0.
1/
1C
0B
#675000
1!
1.
1B
0D
1E
1A
0@
11
00
1#
0$
#680000
0!
0"
0.
0/
0C
0B
0E
0A
01
0#
#685000
1!
1.
1B
1D
1@
10
1$
#690000
0!
1"
0.
1/
1C
0B
#695000
1!
1.
1B
0D
1E
1A
0@
11
00
1#
0$
#700000
0!
0"
0.
0/
0C
0B
0E
0A
01
0#
#705000
1!
1.
1B
1D
1@
10
1$
#710000
0!
1"
0.
1/
1C
0B
#715000
1!
1.
1B
0D
1E
1A
0@
11
00
1#
0$
#720000
0!
0"
0.
0/
0C
0B
0E
0A
01
0#
#725000
1!
1.
1B
1D
1@
10
1$
#730000
0!
1"
0.
1/
1C
0B
#735000
1!
1.
1B
0D
1E
1A
0@
11
00
1#
0$
#740000
0!
0"
0.
0/
0C
0B
0E
0A
01
0#
#745000
1!
1.
1B
1D
1@
10
1$
#750000
0!
1"
0.
1/
1C
0B
#755000
1!
1.
1B
0D
1E
1A
0@
11
00
1#
0$
#760000
0!
0"
0.
0/
0C
0B
0E
0A
01
0#
#765000
1!
1.
1B
1D
1@
10
1$
#770000
0!
1"
0.
1/
1C
0B
#775000
1!
1.
1B
0D
1E
1A
0@
11
00
1#
0$
#780000
0!
0"
0.
0/
0C
0B
0E
0A
01
0#
#785000
1!
1.
1B
1D
1@
10
1$
#790000
0!
1"
0.
1/
1C
0B
#795000
1!
1.
1B
0D
1E
1A
0@
11
00
1#
0$
#800000
0!
0"
0.
0/
0C
0B
0E
0A
01
0#
#805000
1!
1.
1B
1D
1@
10
1$
#810000
0!
1"
0.
1/
1C
0B
#815000
1!
1.
1B
0D
1E
1A
0@
11
00
1#
0$
#820000
0!
0"
0.
0/
0C
0B
0E
0A
01
0#
#825000
1!
1.
1B
1D
1@
10
1$
#830000
0!
1"
0.
1/
1C
0B
#835000
1!
1.
1B
0D
1E
1A
0@
11
00
1#
0$
#840000
0!
0"
0.
0/
0C
0B
0E
0A
01
0#
#845000
1!
1.
1B
1D
1@
10
1$
#850000
0!
1"
0.
1/
1C
0B
#855000
1!
1.
1B
0D
1E
1A
0@
11
00
1#
0$
#860000
0!
0"
0.
0/
0C
0B
0E
0A
01
0#
#865000
1!
1.
1B
1D
1@
10
1$
#870000
0!
1"
0.
1/
1C
0B
#875000
1!
1.
1B
0D
1E
1A
0@
11
00
1#
0$
#880000
0!
0"
0.
0/
0C
0B
0E
0A
01
0#
#885000
1!
1.
1B
1D
1@
10
1$
#890000
0!
1"
0.
1/
1C
0B
#895000
1!
1.
1B
0D
1E
1A
0@
11
00
1#
0$
#900000
0!
0"
0.
0/
0C
0B
0E
0A
01
0#
#905000
1!
1.
1B
1D
1@
10
1$
#910000
0!
1"
0.
1/
1C
0B
#915000
1!
1.
1B
0D
1E
1A
0@
11
00
1#
0$
#920000
0!
0"
0.
0/
0C
0B
0E
0A
01
0#
#925000
1!
1.
1B
1D
1@
10
1$
#930000
0!
1"
0.
1/
1C
0B
#935000
1!
1.
1B
0D
1E
1A
0@
11
00
1#
0$
#940000
0!
0"
0.
0/
0C
0B
0E
0A
01
0#
#945000
1!
1.
1B
1D
1@
10
1$
#950000
0!
1"
0.
1/
1C
0B
#955000
1!
1.
1B
0D
1E
1A
0@
11
00
1#
0$
#960000
0!
0"
0.
0/
0C
0B
0E
0A
01
0#
#965000
1!
1.
1B
1D
1@
10
1$
#970000
0!
1"
0.
1/
1C
0B
#975000
1!
1.
1B
0D
1E
1A
0@
11
00
1#
0$
#980000
0!
0"
0.
0/
0C
0B
0E
0A
01
0#
#985000
1!
1.
1B
1D
1@
10
1$
#990000
0!
1"
0.
1/
1C
0B
#995000
1!
1.
1B
0D
1E
1A
0@
11
00
1#
0$
