LALOG/pires/ex4/simulation/qsim/ex4.msim.vcd
$comment
	File created using the following command:
		vcd file ex4.msim.vcd -direction
$end
$date
	Thu Jul 22 19:22:38 2021
$end
$version
	ModelSim Version 2020.1
$end
$timescale
	1ps
$end

$scope module ex4_vhd_vec_tst $end
$var wire 1 ! ck $end
$var wire 1 " meio_clk $end
$var wire 1 # oitavo_clk $end
$var wire 1 $ quarto_clk $end

$scope module i1 $end
$var wire 1 % gnd $end
$var wire 1 & vcc $end
$var wire 1 ' unknown $end
$var wire 1 ( devoe $end
$var wire 1 ) devclrn $end
$var wire 1 * devpor $end
$var wire 1 + ww_devoe $end
$var wire 1 , ww_devclrn $end
$var wire 1 - ww_devpor $end
$var wire 1 . ww_ck $end
$var wire 1 / ww_meio_clk $end
$var wire 1 0 ww_quarto_clk $end
$var wire 1 1 ww_oitavo_clk $end
$var wire 1 2 \~QUARTUS_CREATED_ADC1~_CHSEL_bus\ [4] $end
$var wire 1 3 \~QUARTUS_CREATED_ADC1~_CHSEL_bus\ [3] $end
$var wire 1 4 \~QUARTUS_CREATED_ADC1~_CHSEL_bus\ [2] $end
$var wire 1 5 \~QUARTUS_CREATED_ADC1~_CHSEL_bus\ [1] $end
$var wire 1 6 \~QUARTUS_CREATED_ADC1~_CHSEL_bus\ [0] $end
$var wire 1 7 \~QUARTUS_CREATED_ADC2~_CHSEL_bus\ [4] $end
$var wire 1 8 \~QUARTUS_CREATED_ADC2~_CHSEL_bus\ [3] $end
$var wire 1 9 \~QUARTUS_CREATED_ADC2~_CHSEL_bus\ [2] $end
$var wire 1 : \~QUARTUS_CREATED_ADC2~_CHSEL_bus\ [1] $end
$var wire 1 ; \~QUARTUS_CREATED_ADC2~_CHSEL_bus\ [0] $end
$var wire 1 < \ck~inputclkctrl_INCLK_bus\ [3] $end
$var wire 1 = \ck~inputclkctrl_INCLK_bus\ [2] $end
$var wire 1 > \ck~inputclkctrl_INCLK_bus\ [1] $end
$var wire 1 ? \ck~inputclkctrl_INCLK_bus\ [0] $end
$var wire 1 @ \~QUARTUS_CREATED_GND~I_combout\ $end
$var wire 1 A \~QUARTUS_CREATED_UNVM~~busy\ $end
$var wire 1 B \~QUARTUS_CREATED_ADC1~~eoc\ $end
$var wire 1 C \~QUARTUS_CREATED_ADC2~~eoc\ $end
$var wire 1 D \meio_clk~output_o\ $end
$var wire 1 E \quarto_clk~output_o\ $end
$var wire 1 F \oitavo_clk~output_o\ $end
$var wire 1 G \ck~input_o\ $end
$var wire 1 H \ck~inputclkctrl_outclk\ $end
$var wire 1 I \proc:meia_sai~0_combout\ $end
$var wire 1 J \proc:meia_sai~q\ $end
$var wire 1 K \meio_clk~0_combout\ $end
$var wire 1 L \meio_clk~reg0_q\ $end
$var wire 1 M \proc:quarta_sai~0_combout\ $end
$var wire 1 N \proc:quarta_sai~q\ $end
$var wire 1 O \quarto_clk~0_combout\ $end
$var wire 1 P \quarto_clk~reg0_q\ $end
$var wire 1 Q \proc:oitava_sai~0_combout\ $end
$var wire 1 R \oitavo_clk~0_combout\ $end
$var wire 1 S \proc:oitava_sai~q\ $end
$var wire 1 T \oitavo_clk~1_combout\ $end
$var wire 1 U \oitavo_clk~reg0_q\ $end
$var wire 1 V \ALT_INV_proc:meia_sai~q\ $end
$upscope $end
$upscope $end
$enddefinitions $end
#0
$dumpvars
0!
0"
0#
0$
0%
1&
x'
1(
1)
1*
1+
1,
1-
0.
0/
00
01
0@
zA
zB
zC
0D
0E
0F
0G
0H
1I
0J
1K
0L
1M
0N
1O
0P
1Q
1R
0S
1T
0U
1V
1<
1=
1>
0?
02
03
04
05
06
07
08
09
0:
0;
$end
#5000
1!
1.
1G
1?
1H
1J
1L
1N
1P
1S
1U
0V
1F
1E
1D
0Q
0T
0M
0O
0I
0K
0R
11
10
1/
1#
1$
1"
#10000
0!
0.
0G
0?
0H
#15000
1!
1.
1G
1?
1H
0J
0L
1V
0D
1I
1K
0/
0"
#20000
0!
0.
0G
0?
0H
#25000
1!
1.
1G
1?
1H
1J
1L
0N
0P
0V
0E
1D
1M
1O
0I
0K
00
1/
0$
1"
#30000
0!
0.
0G
0?
0H
#35000
1!
1.
1G
1?
1H
0J
0L
1V
0D
1I
1K
1R
0/
0"
#40000
0!
0.
0G
0?
0H
#45000
1!
1.
1G
1?
1H
1J
1L
1N
1P
0S
0U
0V
0F
1E
1D
1Q
1T
0M
0O
0I
0K
0R
01
10
1/
0#
1$
1"
#50000
0!
0.
0G
0?
0H
#55000
1!
1.
1G
1?
1H
0J
0L
1V
0D
1I
1K
0/
0"
#60000
0!
0.
0G
0?
0H
#65000
1!
1.
1G
1?
1H
1J
1L
0N
0P
0V
0E
1D
1M
1O
0I
0K
00
1/
0$
1"
#70000
0!
0.
0G
0?
0H
#75000
1!
1.
1G
1?
1H
0J
0L
1V
0D
1I
1K
1R
0/
0"
#80000
0!
0.
0G
0?
0H
#85000
1!
1.
1G
1?
1H
1J
1L
1N
1P
1S
1U
0V
1F
1E
1D
0Q
0T
0M
0O
0I
0K
0R
11
10
1/
1#
1$
1"
#90000
0!
0.
0G
0?
0H
#95000
1!
1.
1G
1?
1H
0J
0L
1V
0D
1I
1K
0/
0"
#100000
0!
0.
0G
0?
0H
#105000
1!
1.
1G
1?
1H
1J
1L
0N
0P
0V
0E
1D
1M
1O
0I
0K
00
1/
0$
1"
#110000
0!
0.
0G
0?
0H
#115000
1!
1.
1G
1?
1H
0J
0L
1V
0D
1I
1K
1R
0/
0"
#120000
0!
0.
0G
0?
0H
#125000
1!
1.
1G
1?
1H
1J
1L
1N
1P
0S
0U
0V
0F
1E
1D
1Q
1T
0M
0O
0I
0K
0R
01
10
1/
0#
1$
1"
#130000
0!
0.
0G
0?
0H
#135000
1!
1.
1G
1?
1H
0J
0L
1V
0D
1I
1K
0/
0"
#140000
0!
0.
0G
0?
0H
#145000
1!
1.
1G
1?
1H
1J
1L
0N
0P
0V
0E
1D
1M
1O
0I
0K
00
1/
0$
1"
#150000
0!
0.
0G
0?
0H
#155000
1!
1.
1G
1?
1H
0J
0L
1V
0D
1I
1K
1R
0/
0"
#160000
0!
0.
0G
0?
0H
#165000
1!
1.
1G
1?
1H
1J
1L
1N
1P
1S
1U
0V
1F
1E
1D
0Q
0T
0M
0O
0I
0K
0R
11
10
1/
1#
1$
1"
#170000
0!
0.
0G
0?
0H
#175000
1!
1.
1G
1?
1H
0J
0L
1V
0D
1I
1K
0/
0"
#180000
0!
0.
0G
0?
0H
#185000
1!
1.
1G
1?
1H
1J
1L
0N
0P
0V
0E
1D
1M
1O
0I
0K
00
1/
0$
1"
#190000
0!
0.
0G
0?
0H
#195000
1!
1.
1G
1?
1H
0J
0L
1V
0D
1I
1K
1R
0/
0"
